^C:\USERS\KENNYGAMING\DOCUMENTS\HOMEWORK\COLLEGE\SPRING SEMESTER 2018\CS 11\ASSIGNMENT 12\ASSIGNMENT 12.2\ASSIGNMENT 12.2\DEBUG\A12_2.OBJ|C:\USERS\KENNYGAMING\DOCUMENTS\HOMEWORK\COLLEGE\SPRING SEMESTER 2018\CS 11\ASSIGNMENT 12\ASSIGNMENT 12.2\ASSIGNMENT 12.2\DEBUG\MYSTRING.OBJ
C:\USERS\KENNYGAMING\DOCUMENTS\HOMEWORK\COLLEGE\SPRING SEMESTER 2018\CS 11\ASSIGNMENT 12\ASSIGNMENT 12.2\DEBUG\ASSIGNMENT 12.2.ILK
C:\USERS\KENNYGAMING\DOCUMENTS\HOMEWORK\COLLEGE\SPRING SEMESTER 2018\CS 11\ASSIGNMENT 12\ASSIGNMENT 12.2\DEBUG\ASSIGNMENT 12.2.EXE
C:\USERS\KENNYGAMING\DOCUMENTS\HOMEWORK\COLLEGE\SPRING SEMESTER 2018\CS 11\ASSIGNMENT 12\ASSIGNMENT 12.2\DEBUG\ASSIGNMENT 12.2.PDB
