^C:\USERS\KENNYGAMING\DOCUMENTS\HOMEWORK\COLLEGE\SPRING SEMESTER 2018\CS 11\ASSIGNMENT 11\ASSIGNMENT 14.1\ASSIGNMENT 14.1\DEBUG\A14_1.OBJ|C:\USERS\KENNYGAMING\DOCUMENTS\HOMEWORK\COLLEGE\SPRING SEMESTER 2018\CS 11\ASSIGNMENT 11\ASSIGNMENT 14.1\ASSIGNMENT 14.1\DEBUG\BINARYTREE.OBJ
C:\USERS\KENNYGAMING\DOCUMENTS\HOMEWORK\COLLEGE\SPRING SEMESTER 2018\CS 11\ASSIGNMENT 11\ASSIGNMENT 14.1\DEBUG\ASSIGNMENT 14.1.ILK
C:\USERS\KENNYGAMING\DOCUMENTS\HOMEWORK\COLLEGE\SPRING SEMESTER 2018\CS 11\ASSIGNMENT 11\ASSIGNMENT 14.1\DEBUG\ASSIGNMENT 14.1.EXE
C:\USERS\KENNYGAMING\DOCUMENTS\HOMEWORK\COLLEGE\SPRING SEMESTER 2018\CS 11\ASSIGNMENT 11\ASSIGNMENT 14.1\DEBUG\ASSIGNMENT 14.1.PDB
