^C:\USERS\KENNYGAMING\DOCUMENTS\HOMEWORK\COLLEGE\SPRING SEMESTER 2018\CS 11\ASSIGNMENT 11\ASSIGNMENT 11.1\ASSIGNMENT 11.1\A11_1.CPP
/c /ZI /nologo /W3 /WX- /Od /Oy- /D WIN32 /D _DEBUG /D _CONSOLE /D _UNICODE /D UNICODE /Gm /EHsc /RTC1 /MDd /GS /fp:precise /Zc:wchar_t /Zc:forScope /Zc:inline /Fo"DEBUG\\" /Fd"DEBUG\VC140.PDB" /Gd /TP /analyze- C:\USERS\KENNYGAMING\DOCUMENTS\HOMEWORK\COLLEGE\SPRING SEMESTER 2018\CS 11\ASSIGNMENT 11\ASSIGNMENT 11.1\ASSIGNMENT 11.1\A11_1.CPP
^C:\USERS\KENNYGAMING\DOCUMENTS\HOMEWORK\COLLEGE\SPRING SEMESTER 2018\CS 11\ASSIGNMENT 11\ASSIGNMENT 11.1\ASSIGNMENT 11.1\SEQUENCE.CPP
/c /ZI /nologo /W3 /WX- /Od /Oy- /D WIN32 /D _DEBUG /D _CONSOLE /D _UNICODE /D UNICODE /Gm /EHsc /RTC1 /MDd /GS /fp:precise /Zc:wchar_t /Zc:forScope /Zc:inline /Fo"DEBUG\\" /Fd"DEBUG\VC140.PDB" /Gd /TP /analyze- C:\USERS\KENNYGAMING\DOCUMENTS\HOMEWORK\COLLEGE\SPRING SEMESTER 2018\CS 11\ASSIGNMENT 11\ASSIGNMENT 11.1\ASSIGNMENT 11.1\SEQUENCE.CPP
