^C:\USERS\KENNYGAMING\DOCUMENTS\HOMEWORK\COLLEGE\SPRING SEMESTER 2018\CS 11\ASSIGNMENT 7\ASSIGNMENT 7.1\ASSIGNMENT 7.1\DEBUG\A7_1.OBJ|C:\USERS\KENNYGAMING\DOCUMENTS\HOMEWORK\COLLEGE\SPRING SEMESTER 2018\CS 11\ASSIGNMENT 7\ASSIGNMENT 7.1\ASSIGNMENT 7.1\DEBUG\BALROG.OBJ|C:\USERS\KENNYGAMING\DOCUMENTS\HOMEWORK\COLLEGE\SPRING SEMESTER 2018\CS 11\ASSIGNMENT 7\ASSIGNMENT 7.1\ASSIGNMENT 7.1\DEBUG\CREATURE.OBJ|C:\USERS\KENNYGAMING\DOCUMENTS\HOMEWORK\COLLEGE\SPRING SEMESTER 2018\CS 11\ASSIGNMENT 7\ASSIGNMENT 7.1\ASSIGNMENT 7.1\DEBUG\CYBERDEMON.OBJ|C:\USERS\KENNYGAMING\DOCUMENTS\HOMEWORK\COLLEGE\SPRING SEMESTER 2018\CS 11\ASSIGNMENT 7\ASSIGNMENT 7.1\ASSIGNMENT 7.1\DEBUG\DEMON.OBJ|C:\USERS\KENNYGAMING\DOCUMENTS\HOMEWORK\COLLEGE\SPRING SEMESTER 2018\CS 11\ASSIGNMENT 7\ASSIGNMENT 7.1\ASSIGNMENT 7.1\DEBUG\ELF.OBJ|C:\USERS\KENNYGAMING\DOCUMENTS\HOMEWORK\COLLEGE\SPRING SEMESTER 2018\CS 11\ASSIGNMENT 7\ASSIGNMENT 7.1\ASSIGNMENT 7.1\DEBUG\HUMAN.OBJ
C:\USERS\KENNYGAMING\DOCUMENTS\HOMEWORK\COLLEGE\SPRING SEMESTER 2018\CS 11\ASSIGNMENT 7\ASSIGNMENT 7.1\DEBUG\ASSIGNMENT 7.1.ILK
C:\USERS\KENNYGAMING\DOCUMENTS\HOMEWORK\COLLEGE\SPRING SEMESTER 2018\CS 11\ASSIGNMENT 7\ASSIGNMENT 7.1\DEBUG\ASSIGNMENT 7.1.EXE
C:\USERS\KENNYGAMING\DOCUMENTS\HOMEWORK\COLLEGE\SPRING SEMESTER 2018\CS 11\ASSIGNMENT 7\ASSIGNMENT 7.1\DEBUG\ASSIGNMENT 7.1.PDB
