^C:\USERS\KENNYGAMING\DOCUMENTS\HOMEWORK\COLLEGE\SPRING SEMESTER 2018\CS 11\ASSIGNMENT 1.2\ASSIGNMENT 1.2\DEBUG\A1_2.OBJ
C:\USERS\KENNYGAMING\DOCUMENTS\HOMEWORK\COLLEGE\SPRING SEMESTER 2018\CS 11\ASSIGNMENT 1.2\DEBUG\ASSIGNMENT 1.2.ILK
C:\USERS\KENNYGAMING\DOCUMENTS\HOMEWORK\COLLEGE\SPRING SEMESTER 2018\CS 11\ASSIGNMENT 1.2\DEBUG\ASSIGNMENT 1.2.EXE
C:\USERS\KENNYGAMING\DOCUMENTS\HOMEWORK\COLLEGE\SPRING SEMESTER 2018\CS 11\ASSIGNMENT 1.2\DEBUG\ASSIGNMENT 1.2.PDB
